-------------------------------------------------------------------------------
Test set: hiring.employertests.SetNewFatherNAmeTest
-------------------------------------------------------------------------------
Tests run: 1, Failures: 0, Errors: 0, Skipped: 0, Time elapsed: 0.325 s - in hiring.employertests.SetNewFatherNAmeTest
