-------------------------------------------------------------------------------
Test set: hiring.employertests.DeleteTest
-------------------------------------------------------------------------------
Tests run: 1, Failures: 0, Errors: 0, Skipped: 0, Time elapsed: 0.342 s - in hiring.employertests.DeleteTest
