<?xml version="1.0" encoding="UTF-8"?>
<testsuite xmlns:xsi="http://www.w3.org/2001/XMLSchema-instance" xsi:noNamespaceSchemaLocation="https://maven.apache.org/surefire/maven-surefire-plugin/xsd/surefire-test-report.xsd" name="hiring.employertests.SetNewFatherNAmeTest" time="0.325" tests="1" errors="0" skipped="0" failures="0">
  <properties>
    <property name="sun.desktop" value="gnome"/>
    <property name="awt.toolkit" value="sun.awt.X11.XToolkit"/>
    <property name="file.encoding.pkg" value="sun.io"/>
    <property name="java.specification.version" value="1.8"/>
    <property name="sun.cpu.isalist" value=""/>
    <property name="sun.jnu.encoding" value="UTF-8"/>
    <property name="java.class.path" value="/home/vladislav/ThambTack/ThumbTack/thumbtack-online-school/target/test-classes:/home/vladislav/ThambTack/ThumbTack/thumbtack-online-school/target/classes:/home/vladislav/.m2/repository/org/jooq/jooq/3.11.0/jooq-3.11.0.jar:/home/vladislav/.m2/repository/javax/xml/bind/jaxb-api/2.3.0/jaxb-api-2.3.0.jar:/home/vladislav/.m2/repository/org/xerial/sqlite-jdbc/3.21.0.1/sqlite-jdbc-3.21.0.1.jar:/home/vladislav/.m2/repository/org/jooq/jooq-meta/3.11.0/jooq-meta-3.11.0.jar:/home/vladislav/.m2/repository/org/jooq/jooq-codegen/3.11.0/jooq-codegen-3.11.0.jar:/home/vladislav/.m2/repository/org/slf4j/slf4j-jdk14/1.8.0-beta2/slf4j-jdk14-1.8.0-beta2.jar:/home/vladislav/.m2/repository/org/slf4j/slf4j-api/1.8.0-beta2/slf4j-api-1.8.0-beta2.jar:/home/vladislav/.m2/repository/org/apache/commons/commons-lang3/3.1/commons-lang3-3.1.jar:/home/vladislav/.m2/repository/com/google/code/gson/gson/2.8.2/gson-2.8.2.jar:/home/vladislav/.m2/repository/junit/junit/4.12/junit-4.12.jar:/home/vladislav/.m2/repository/org/hamcrest/hamcrest-core/1.3/hamcrest-core-1.3.jar:"/>
    <property name="java.vm.vendor" value="Oracle Corporation"/>
    <property name="sun.arch.data.model" value="64"/>
    <property name="java.vendor.url" value="http://java.oracle.com/"/>
    <property name="user.timezone" value=""/>
    <property name="java.vm.specification.version" value="1.8"/>
    <property name="os.name" value="Linux"/>
    <property name="user.country" value="RU"/>
    <property name="sun.java.launcher" value="SUN_STANDARD"/>
    <property name="sun.boot.library.path" value="/usr/lib/jvm/java-8-openjdk-amd64/jre/lib/amd64"/>
    <property name="sun.java.command" value="/home/vladislav/ThambTack/ThumbTack/thumbtack-online-school/target/surefire/surefirebooter2410471449337304924.jar /home/vladislav/ThambTack/ThumbTack/thumbtack-online-school/target/surefire 2018-06-12T17-11-47_672-jvmRun1 surefire5725484002989084924tmp surefire_05310351160543744060tmp"/>
    <property name="surefire.test.class.path" value="/home/vladislav/ThambTack/ThumbTack/thumbtack-online-school/target/test-classes:/home/vladislav/ThambTack/ThumbTack/thumbtack-online-school/target/classes:/home/vladislav/.m2/repository/org/jooq/jooq/3.11.0/jooq-3.11.0.jar:/home/vladislav/.m2/repository/javax/xml/bind/jaxb-api/2.3.0/jaxb-api-2.3.0.jar:/home/vladislav/.m2/repository/org/xerial/sqlite-jdbc/3.21.0.1/sqlite-jdbc-3.21.0.1.jar:/home/vladislav/.m2/repository/org/jooq/jooq-meta/3.11.0/jooq-meta-3.11.0.jar:/home/vladislav/.m2/repository/org/jooq/jooq-codegen/3.11.0/jooq-codegen-3.11.0.jar:/home/vladislav/.m2/repository/org/slf4j/slf4j-jdk14/1.8.0-beta2/slf4j-jdk14-1.8.0-beta2.jar:/home/vladislav/.m2/repository/org/slf4j/slf4j-api/1.8.0-beta2/slf4j-api-1.8.0-beta2.jar:/home/vladislav/.m2/repository/org/apache/commons/commons-lang3/3.1/commons-lang3-3.1.jar:/home/vladislav/.m2/repository/com/google/code/gson/gson/2.8.2/gson-2.8.2.jar:/home/vladislav/.m2/repository/junit/junit/4.12/junit-4.12.jar:/home/vladislav/.m2/repository/org/hamcrest/hamcrest-core/1.3/hamcrest-core-1.3.jar:"/>
    <property name="sun.cpu.endian" value="little"/>
    <property name="user.home" value="/home/vladislav"/>
    <property name="user.language" value="ru"/>
    <property name="java.specification.vendor" value="Oracle Corporation"/>
    <property name="java.home" value="/usr/lib/jvm/java-8-openjdk-amd64/jre"/>
    <property name="basedir" value="/home/vladislav/ThambTack/ThumbTack/thumbtack-online-school"/>
    <property name="file.separator" value="/"/>
    <property name="line.separator" value="&#10;"/>
    <property name="java.vm.specification.vendor" value="Oracle Corporation"/>
    <property name="java.specification.name" value="Java Platform API Specification"/>
    <property name="java.awt.graphicsenv" value="sun.awt.X11GraphicsEnvironment"/>
    <property name="surefire.real.class.path" value="/home/vladislav/ThambTack/ThumbTack/thumbtack-online-school/target/surefire/surefirebooter2410471449337304924.jar"/>
    <property name="sun.boot.class.path" value="/usr/lib/jvm/java-8-openjdk-amd64/jre/lib/resources.jar:/usr/lib/jvm/java-8-openjdk-amd64/jre/lib/rt.jar:/usr/lib/jvm/java-8-openjdk-amd64/jre/lib/sunrsasign.jar:/usr/lib/jvm/java-8-openjdk-amd64/jre/lib/jsse.jar:/usr/lib/jvm/java-8-openjdk-amd64/jre/lib/jce.jar:/usr/lib/jvm/java-8-openjdk-amd64/jre/lib/charsets.jar:/usr/lib/jvm/java-8-openjdk-amd64/jre/lib/jfr.jar:/usr/lib/jvm/java-8-openjdk-amd64/jre/classes"/>
    <property name="sun.management.compiler" value="HotSpot 64-Bit Tiered Compilers"/>
    <property name="java.runtime.version" value="1.8.0_171-8u171-b11-0ubuntu0.18.04.1-b11"/>
    <property name="user.name" value="vladislav"/>
    <property name="path.separator" value=":"/>
    <property name="os.version" value="4.15.0-22-generic"/>
    <property name="java.endorsed.dirs" value="/usr/lib/jvm/java-8-openjdk-amd64/jre/lib/endorsed"/>
    <property name="java.runtime.name" value="OpenJDK Runtime Environment"/>
    <property name="file.encoding" value="UTF-8"/>
    <property name="java.vm.name" value="OpenJDK 64-Bit Server VM"/>
    <property name="localRepository" value="/home/vladislav/.m2/repository"/>
    <property name="java.vendor.url.bug" value="http://bugreport.sun.com/bugreport/"/>
    <property name="java.io.tmpdir" value="/tmp"/>
    <property name="java.version" value="1.8.0_171"/>
    <property name="user.dir" value="/home/vladislav/ThambTack/ThumbTack/thumbtack-online-school"/>
    <property name="os.arch" value="amd64"/>
    <property name="java.vm.specification.name" value="Java Virtual Machine Specification"/>
    <property name="java.awt.printerjob" value="sun.print.PSPrinterJob"/>
    <property name="sun.os.patch.level" value="unknown"/>
    <property name="java.library.path" value="/usr/java/packages/lib/amd64:/usr/lib/x86_64-linux-gnu/jni:/lib/x86_64-linux-gnu:/usr/lib/x86_64-linux-gnu:/usr/lib/jni:/lib:/usr/lib"/>
    <property name="java.vm.info" value="mixed mode"/>
    <property name="java.vendor" value="Oracle Corporation"/>
    <property name="java.vm.version" value="25.171-b11"/>
    <property name="java.ext.dirs" value="/usr/lib/jvm/java-8-openjdk-amd64/jre/lib/ext:/usr/java/packages/lib/ext"/>
    <property name="sun.io.unicode.encoding" value="UnicodeLittle"/>
    <property name="java.class.version" value="52.0"/>
  </properties>
  <testcase name="name" classname="hiring.employertests.SetNewFatherNAmeTest" time="0.325"/>
</testsuite>